<?xml version="1.0" encoding="UTF-8" standalone="no"?>
<svg
   xmlns:dc="http://purl.org/dc/elements/1.1/"
   xmlns:cc="http://creativecommons.org/ns#"
   xmlns:rdf="http://www.w3.org/1999/02/22-rdf-syntax-ns#"
   xmlns:svg="http://www.w3.org/2000/svg"
   xmlns="http://www.w3.org/2000/svg"
   xmlns:sodipodi="http://sodipodi.sourceforge.net/DTD/sodipodi-0.dtd"
   xmlns:inkscape="http://www.inkscape.org/namespaces/inkscape"
   inkscape:version="0.92.3 (2405546, 2018-03-11)"
   sodipodi:docname="caseplans_3mm.svg"
   id="svg908"
   viewBox="0 0 423.78548 350.19584"
   height="98.832962mm"
   width="119.60158mm"
   version="1.1">
  <sodipodi:namedview
     showguides="false"
     inkscape:measure-end="429.438,682.375"
     inkscape:measure-start="438.719,682.375"
     fit-margin-bottom="10"
     fit-margin-right="10"
     fit-margin-left="10"
     fit-margin-top="10"
     inkscape:current-layer="svg908"
     inkscape:window-maximized="1"
     inkscape:window-y="42"
     inkscape:window-x="0"
     inkscape:cy="190.48466"
     inkscape:cx="157.10531"
     inkscape:zoom="2"
     inkscape:document-units="mm"
     showgrid="false"
     id="namedview910"
     inkscape:window-height="1038"
     inkscape:window-width="1920"
     inkscape:pageshadow="2"
     inkscape:pageopacity="0"
     guidetolerance="10"
     gridtolerance="10"
     objecttolerance="10"
     borderopacity="1"
     bordercolor="#666666"
     pagecolor="#ffffff" />
  <metadata
     id="metadata914">
    <rdf:RDF>
      <cc:Work
         rdf:about="">
        <dc:format>image/svg+xml</dc:format>
        <dc:type
           rdf:resource="http://purl.org/dc/dcmitype/StillImage" />
        <dc:title></dc:title>
      </cc:Work>
    </rdf:RDF>
  </metadata>
  <defs
     id="defs912" />
  <!-- Front-->
  <!-- Back-->
  <!-- Left-->
  <g
     transform="translate(393.59833,-0.37039982)"
     id="g894" />
  <!-- Right-->
  <!-- Top-->
  <!-- Bottom-->
  <path
     style="opacity:1;fill:none;fill-opacity:1;stroke:#ff0000;stroke-width:0.71253479;stroke-linecap:round;stroke-miterlimit:10.31156349;stroke-dasharray:none;paint-order:stroke fill markers"
     d="m 187.79817,40.355888 c -1.963,0 -3.5431,1.580101 -3.5431,3.543094 v 1.598512 H 143.6862 v 7.100837 H 101.16541 V 45.497494 H 60.592858 v -1.59485 c 0,-1.962993 -1.580099,-3.543094 -3.543093,-3.543094 H 39.332464 c -1.962994,0 -3.543094,1.580101 -3.543094,3.543094 v 17.717302 c 0,1.962993 1.5801,3.543094 3.543094,3.543094 h 1.600343 v 215.78815 h -1.600343 c -1.962994,0 -3.543094,1.5801 -3.543094,3.5431 v 17.71547 c 0,1.96299 1.5801,3.54309 3.543094,3.54309 h 17.717301 c 1.962994,0 3.543093,-1.5801 3.543093,-3.54309 v -1.59852 H 184.25507 v 1.59486 c 0,1.96299 1.5801,3.54309 3.5431,3.54309 h 17.71548 c 1.96298,0 3.54308,-1.5801 3.54308,-3.54309 v -17.71548 c 0,-1.96299 -1.5801,-3.54308 -3.54308,-3.54308 h -1.59302 V 65.159378 h 1.59302 c 1.96298,0 3.54308,-1.580101 3.54308,-3.543094 V 43.898982 c 0,-1.962993 -1.5801,-3.543094 -3.54308,-3.543094 z"
     id="rect942"
     inkscape:connector-curvature="0" />
  <path
     style="opacity:1;fill:none;fill-opacity:1;stroke:#ff0000;stroke-width:0.71253127;stroke-linecap:round;stroke-miterlimit:10.43299961;stroke-dasharray:none;paint-order:stroke fill markers"
     d="m 366.7357,40.355888 c -1.963,0 -3.5431,1.5801 -3.5431,3.543094 v 1.598512 H 239.53038 v -1.59485 c 0,-1.962994 -1.5801,-3.543094 -3.54309,-3.543094 h -17.71547 c -1.963,0 -3.5431,1.5801 -3.5431,3.543094 v 17.717301 c 0,1.962994 1.5801,3.543094 3.5431,3.543094 h 1.59668 c -0.11933,66.156701 -0.1301,169.272701 -0.0494,215.788151 h -1.54724 c -1.963,0 -3.5431,1.5801 -3.5431,3.5431 v 17.71546 c 0,1.963 1.5801,3.5431 3.5431,3.5431 h 17.71547 c 1.96299,0 3.54309,-1.5801 3.54309,-3.5431 v -1.59302 h 123.66222 v 1.58936 c 0,1.963 1.5801,3.54309 3.5431,3.54309 h 17.7173 c 1.96299,0 3.54309,-1.58009 3.54309,-3.54309 v -17.71547 c 0,-1.963 -1.5801,-3.54309 -3.54309,-3.54309 h -1.59485 V 65.159377 h 1.59485 c 1.96299,-1e-6 3.54309,-1.5801 3.54309,-3.543094 V 43.898982 c 0,-1.962994 -1.5801,-3.543094 -3.54309,-3.543094 z"
     id="rect972"
     inkscape:connector-curvature="0" />
  <circle
     style="opacity:1;fill:none;fill-opacity:1;stroke:#ff0000;stroke-width:0.70866203;stroke-linecap:round;stroke-miterlimit:10.43299961;stroke-dasharray:none;paint-order:stroke fill markers"
     id="path2919"
     cx="139.79675"
     cy="214.41258"
     r="1.7716551" />
  <circle
     style="opacity:1;fill:none;fill-opacity:1;stroke:#ff0000;stroke-width:0.70866203;stroke-linecap:round;stroke-miterlimit:10.43299961;stroke-dasharray:none;paint-order:stroke fill markers"
     id="path2921"
     cx="104.57949"
     cy="107.97356"
     r="1.7716551" />
  <g
     transform="translate(5.8511825,9.59186)"
     id="g2404">
    <circle
       style="opacity:1;fill:none;fill-opacity:1;stroke:#ff0000;stroke-width:0.70866203;stroke-linecap:round;stroke-miterlimit:10.31156349;stroke-dasharray:none;paint-order:stroke fill markers"
       id="circle2396"
       cx="55.452805"
       cy="60.05843"
       r="5.4921308" />
    <circle
       style="opacity:1;fill:none;fill-opacity:1;stroke:#ff0000;stroke-width:0.70866203;stroke-linecap:round;stroke-miterlimit:10.31156349;stroke-dasharray:none;paint-order:stroke fill markers"
       id="circle2398"
       cx="55.452805"
       cy="225.70818"
       r="5.4921303" />
    <circle
       style="opacity:1;fill:none;fill-opacity:1;stroke:#ff0000;stroke-width:0.70866203;stroke-linecap:round;stroke-miterlimit:10.31156349;stroke-dasharray:none;paint-order:stroke fill markers"
       id="circle2400"
       cx="177.69701"
       cy="60.058437"
       r="5.4921303" />
    <circle
       style="opacity:1;fill:none;fill-opacity:1;stroke:#ff0000;stroke-width:0.70866203;stroke-linecap:round;stroke-miterlimit:10.31156349;stroke-dasharray:none;paint-order:stroke fill markers"
       id="circle2402"
       cx="177.69701"
       cy="225.70818"
       r="5.4921298" />
  </g>
  <path
     style="opacity:1;fill:none;fill-opacity:1;stroke:#ff0000;stroke-width:0.70866203;stroke-linecap:round;stroke-miterlimit:10.31156349;stroke-dasharray:none;paint-order:stroke fill markers"
     d="m 189.39256,45.493375 v 7.441412 h 7.08619 v 7.086188 h 7.44142 v -7.086188 -7.441412 h -7.44142 z m -148.462042,0.0019 v 7.441412 7.086188 h 7.441413 v -7.086188 h 7.086188 v -7.441412 h -7.086188 z m 0.0019,240.587975 v 7.08618 7.44142 h 7.441413 7.086188 v -7.44142 h -7.086188 v -7.08618 z m 155.546402,0 v 7.08618 h -7.08619 v 7.44142 h 7.08619 7.44141 v -7.44142 -7.08618 z"
     id="rect3085"
     inkscape:connector-curvature="0" />
  <path
     id="path3257"
     d="m 368.32921,45.497946 v 7.441413 h 7.0862 v 7.086188 h 7.44141 v -7.086188 -7.441413 h -7.44141 z m -148.46204,0.0018 v 7.441413 7.086188 h 7.44142 v -7.086188 h 7.08619 v -7.441413 h -7.08619 z m 0.002,240.587974 v 7.08619 7.44141 h 7.44141 7.08619 v -7.44141 h -7.08619 v -7.08619 z m 155.5464,0 v 7.08619 h -7.0862 v 7.44141 h 7.0862 7.44141 v -7.44141 -7.08619 z"
     style="opacity:1;fill:none;fill-opacity:1;stroke:#ff0000;stroke-width:0.70866203;stroke-linecap:round;stroke-miterlimit:10.31156349;stroke-dasharray:none;paint-order:stroke fill markers"
     inkscape:connector-curvature="0" />
  <g
     inkscape:label="Hershey Text"
     transform="matrix(0.44012928,0,0,0.44012928,108.69442,108.67679)"
     id="g5290">
    <path
       inkscape:connector-curvature="0"
       d="M -7,-12 V 9 m 0,-21 h 9 l 3,1 1,1 1,2 v 3 l -1,2 -1,1 -3,1 h -9"
       style="fill:none;stroke:#000000"
       transform="translate(11)"
       id="path5284" />
    <path
       inkscape:connector-curvature="0"
       d="M -10,-12 -5,9 M 0,-12 -5,9 M 0,-12 5,9 M 10,-12 5,9"
       style="fill:none;stroke:#000000"
       transform="translate(33)"
       id="path5286" />
    <path
       inkscape:connector-curvature="0"
       d="M -7,-12 V 9 m 0,-21 h 9 l 3,1 1,1 1,2 v 2 l -1,2 -1,1 -3,1 h -9 m 7,0 7,11"
       style="fill:none;stroke:#000000"
       transform="translate(56)"
       id="path5288" />
  </g>
  <g
     id="g5356"
     transform="matrix(0.4247154,0,0,0.4247154,111.8583,215.10232)"
     inkscape:label="Hershey Text">
    <path
       id="path5350"
       transform="translate(9)"
       style="fill:none;stroke:#000000"
       d="M 0,-12 -8,9 M 0,-12 8,9 M -5,2 H 5"
       inkscape:connector-curvature="0" />
    <path
       id="path5352"
       transform="translate(28)"
       style="fill:none;stroke:#000000"
       d="M 8,-7 7,-9 5,-11 3,-12 h -4 l -2,1 -2,2 -1,2 -1,3 v 5 l 1,3 1,2 2,2 2,1 H 3 L 5,8 7,6 8,4"
       inkscape:connector-curvature="0" />
    <path
       id="path5354"
       transform="translate(47)"
       style="fill:none;stroke:#000000"
       d="M 0,-12 V 9 M -7,-12 H 7"
       inkscape:connector-curvature="0" />
  </g>
  <g
     style="stroke-width:0.70866203;stroke-miterlimit:5.57789087;stroke-dasharray:none"
     id="g9133"
     transform="translate(-2.7517413,19.602258)">
    <path
       sodipodi:nodetypes="cccc"
       inkscape:connector-curvature="0"
       id="path5405"
       d="m 209.89508,259.564 h -68.65612 l -8.14453,8.14454 v 27.06314"
       style="fill:none;stroke:#000000;stroke-width:0.70866203;stroke-linecap:butt;stroke-linejoin:miter;stroke-miterlimit:5.57789087;stroke-dasharray:none;stroke-opacity:1" />
    <path
       sodipodi:nodetypes="cccc"
       inkscape:connector-curvature="0"
       id="path5407"
       d="m 210.88121,255.0084 h -71.40419 l -11.76671,11.7667 v 27.97111"
       style="fill:none;stroke:#000000;stroke-width:0.70866203;stroke-linecap:butt;stroke-linejoin:miter;stroke-miterlimit:5.57789087;stroke-dasharray:none;stroke-opacity:1" />
    <path
       style="fill:none;stroke:#000000;stroke-width:0.70866203;stroke-linecap:butt;stroke-linejoin:miter;stroke-miterlimit:5.57789087;stroke-dasharray:none;stroke-opacity:1"
       d="m 210.82688,245.44199 h -74.8896 c -0.5293,0.17953 -14.00025,13.90391 -17.70081,17.68091 -0.59107,0.60328 -0.93288,0.95278 -0.93288,0.95278 v 30.69596"
       id="path5413"
       inkscape:connector-curvature="0"
       sodipodi:nodetypes="ccscc" />
    <path
       style="fill:none;stroke:#000000;stroke-width:0.70866203;stroke-linecap:butt;stroke-linejoin:miter;stroke-miterlimit:5.57789087;stroke-dasharray:none;stroke-opacity:1"
       d="m 211.28442,250.18686 h -73.59054 c -0.37534,0.28151 -15.00617,15.00617 -15.00617,15.00617 v 29.96746"
       id="path5415"
       inkscape:connector-curvature="0"
       sodipodi:nodetypes="cccc" />
  </g>
  <rect
     style="opacity:1;fill:none;fill-opacity:1;stroke:#000000;stroke-width:0.70866203;stroke-linecap:round;stroke-miterlimit:5.57789087;stroke-dasharray:none;paint-order:stroke fill markers"
     id="rect9188"
     width="6.6291318"
     height="24.196331"
     x="-108.70695"
     y="276.29434"
     transform="rotate(-45)" />
  <g
     transform="translate(1.7738368,11.134927)"
     id="g9332">
    <g
       id="g9262"
       transform="matrix(0.54873264,0,0,0.6771243,67.183099,148.53462)"
       inkscape:label="Hershey Text">
      <path
         id="path9242"
         transform="translate(9)"
         style="fill:none;stroke:#000000"
         d="M -5,-5 V 5 l 1,3 2,1 H 1 L 3,8 6,5 M 6,-5 V 9"
         inkscape:connector-curvature="0" />
      <path
         id="path9244"
         transform="translate(27)"
         style="fill:none;stroke:#000000"
         d="M 6,-2 5,-4 2,-5 h -3 l -3,1 -1,2 1,2 2,1 5,1 2,1 1,2 V 6 L 5,8 2,9 H -1 L -4,8 -5,6"
         inkscape:connector-curvature="0" />
      <path
         id="path9246"
         transform="translate(46)"
         style="fill:none;stroke:#000000"
         d="M -6,-12 V 9 m 0,-11 2,-2 2,-1 h 3 l 2,1 2,2 1,3 V 3 L 5,6 3,8 1,9 H -2 L -4,8 -6,6"
         inkscape:connector-curvature="0" />
      <path
         id="path9248"
         transform="translate(68)"
         style="fill:none;stroke:#000000"
         d="M -9,0 H 9"
         inkscape:connector-curvature="0" />
      <path
         id="path9250"
         transform="translate(90)"
         style="fill:none;stroke:#000000"
         d="M 6,-2 4,-4 2,-5 h -3 l -2,1 -2,2 -1,3 v 2 l 1,3 2,2 2,1 H 2 L 4,8 6,6"
         inkscape:connector-curvature="0" />
      <path
         id="path9252"
         transform="translate(112)"
         style="fill:none;stroke:#000000"
         d="M -9,0 H 9"
         inkscape:connector-curvature="0" />
      <path
         id="path9254"
         transform="translate(134)"
         style="fill:none;stroke:#000000"
         d="M 6,-5 V 11 L 5,14 4,15 2,16 H -1 L -3,15 M 6,-2 4,-4 2,-5 h -3 l -2,1 -2,2 -1,3 v 2 l 1,3 2,2 2,1 H 2 L 4,8 6,6"
         inkscape:connector-curvature="0" />
      <path
         id="path9256"
         transform="translate(151)"
         style="fill:none;stroke:#000000"
         d="M -3,-5 V 9 m 0,-8 1,-3 2,-2 2,-1 h 3"
         inkscape:connector-curvature="0" />
      <path
         id="path9258"
         transform="translate(166)"
         style="fill:none;stroke:#000000"
         d="m -1,-5 -2,1 -2,2 -1,3 v 2 l 1,3 2,2 2,1 H 2 L 4,8 6,6 7,3 V 1 L 6,-2 4,-4 2,-5 h -3"
         inkscape:connector-curvature="0" />
      <path
         id="path9260"
         transform="translate(185)"
         style="fill:none;stroke:#000000"
         d="M -5,-12 V 9 M 5,-5 -5,5 m 4,-4 7,8"
         inkscape:connector-curvature="0" />
    </g>
    <rect
       style="opacity:1;fill:none;fill-opacity:1;stroke:#000000;stroke-width:0.70065492;stroke-linecap:round;stroke-miterlimit:10.31156349;stroke-dasharray:none;paint-order:stroke fill markers"
       id="rect9314"
       width="124.143"
       height="35.473862"
       x="58.57909"
       y="132.32121" />
  </g>
  <path
     inkscape:connector-curvature="0"
     id="path9343"
     d="m 139.99124,214.4787 6.29768,-6.29768 v -17.23573 l -11.97388,-11.97388"
     style="fill:none;stroke:#000000;stroke-width:0.70866203;stroke-linecap:butt;stroke-linejoin:miter;stroke-miterlimit:5.57789087;stroke-dasharray:none;stroke-opacity:1" />
  <path
     style="fill:none;stroke:#000000;stroke-width:0.70866203;stroke-linecap:butt;stroke-linejoin:miter;stroke-miterlimit:5.57789087;stroke-dasharray:none;stroke-opacity:1"
     d="m 104.86983,107.95681 -6.29768,6.29768 v 17.23573 l 11.97388,11.97388"
     id="path9345"
     inkscape:connector-curvature="0" />
  <path
     inkscape:connector-curvature="0"
     id="path9347"
     d="m 107.44696,178.82117 -14.601605,14.60161 v 48.92705 l 27.762255,27.76225"
     style="fill:none;stroke:#000000;stroke-width:0.70866203;stroke-linecap:butt;stroke-linejoin:miter;stroke-miterlimit:5.57789087;stroke-dasharray:none;stroke-opacity:1"
     sodipodi:nodetypes="cccc" />
  <path
     style="fill:none;stroke:#000000;stroke-width:0.70866203;stroke-linecap:butt;stroke-linejoin:miter;stroke-miterlimit:5.57789087;stroke-dasharray:none;stroke-opacity:1"
     d="m 136.83681,143.59416 16.06063,-16.06063 V 91.312572 L 122.36112,60.776245 V 35.433102"
     id="path9349"
     inkscape:connector-curvature="0"
     sodipodi:nodetypes="ccccc" />
  <g
     id="g10545"
     transform="matrix(-1,0,0,1,422.01254,11.134927)">
    <g
       inkscape:label="Hershey Text"
       transform="matrix(-0.54873264,0,0,0.6771243,174.11808,148.53462)"
       id="g10541">
      <path
         inkscape:connector-curvature="0"
         d="M -5,-5 V 5 l 1,3 2,1 H 1 L 3,8 6,5 M 6,-5 V 9"
         style="fill:none;stroke:#000000"
         transform="translate(9)"
         id="path10521" />
      <path
         inkscape:connector-curvature="0"
         d="M 6,-2 5,-4 2,-5 h -3 l -3,1 -1,2 1,2 2,1 5,1 2,1 1,2 V 6 L 5,8 2,9 H -1 L -4,8 -5,6"
         style="fill:none;stroke:#000000"
         transform="translate(27)"
         id="path10523" />
      <path
         inkscape:connector-curvature="0"
         d="M -6,-12 V 9 m 0,-11 2,-2 2,-1 h 3 l 2,1 2,2 1,3 V 3 L 5,6 3,8 1,9 H -2 L -4,8 -6,6"
         style="fill:none;stroke:#000000"
         transform="translate(46)"
         id="path10525" />
      <path
         inkscape:connector-curvature="0"
         d="M -9,0 H 9"
         style="fill:none;stroke:#000000"
         transform="translate(68)"
         id="path10527" />
      <path
         inkscape:connector-curvature="0"
         d="M 6,-2 4,-4 2,-5 h -3 l -2,1 -2,2 -1,3 v 2 l 1,3 2,2 2,1 H 2 L 4,8 6,6"
         style="fill:none;stroke:#000000"
         transform="translate(90)"
         id="path10529" />
      <path
         inkscape:connector-curvature="0"
         d="M -9,0 H 9"
         style="fill:none;stroke:#000000"
         transform="translate(112)"
         id="path10531" />
      <path
         inkscape:connector-curvature="0"
         d="M 6,-5 V 11 L 5,14 4,15 2,16 H -1 L -3,15 M 6,-2 4,-4 2,-5 h -3 l -2,1 -2,2 -1,3 v 2 l 1,3 2,2 2,1 H 2 L 4,8 6,6"
         style="fill:none;stroke:#000000"
         transform="translate(134)"
         id="path10533" />
      <path
         inkscape:connector-curvature="0"
         d="M -3,-5 V 9 m 0,-8 1,-3 2,-2 2,-1 h 3"
         style="fill:none;stroke:#000000"
         transform="translate(151)"
         id="path10535" />
      <path
         inkscape:connector-curvature="0"
         d="m -1,-5 -2,1 -2,2 -1,3 v 2 l 1,3 2,2 2,1 H 2 L 4,8 6,6 7,3 V 1 L 6,-2 4,-4 2,-5 h -3"
         style="fill:none;stroke:#000000"
         transform="translate(166)"
         id="path10537" />
      <path
         inkscape:connector-curvature="0"
         d="M -5,-12 V 9 M 5,-5 -5,5 m 4,-4 7,8"
         style="fill:none;stroke:#000000"
         transform="translate(185)"
         id="path10539" />
    </g>
    <rect
       y="132.32121"
       x="58.57909"
       height="35.473862"
       width="124.143"
       id="rect10543"
       style="opacity:1;fill:none;fill-opacity:1;stroke:#000000;stroke-width:0.70065492;stroke-linecap:round;stroke-miterlimit:10.31156349;stroke-dasharray:none;paint-order:stroke fill markers" />
  </g>
  <g
     id="g10660"
     transform="translate(184.78704,9.59186)">
    <circle
       r="5.4921308"
       cy="60.05843"
       cx="55.452805"
       id="circle10644"
       style="opacity:1;fill:none;fill-opacity:1;stroke:#ff0000;stroke-width:0.70866203;stroke-linecap:round;stroke-miterlimit:10.31156349;stroke-dasharray:none;paint-order:stroke fill markers" />
    <circle
       r="5.4921303"
       cy="225.70818"
       cx="55.452805"
       id="circle10646"
       style="opacity:1;fill:none;fill-opacity:1;stroke:#ff0000;stroke-width:0.70866203;stroke-linecap:round;stroke-miterlimit:10.31156349;stroke-dasharray:none;paint-order:stroke fill markers" />
    <circle
       r="5.4921303"
       cy="60.058437"
       cx="177.69701"
       id="circle10648"
       style="opacity:1;fill:none;fill-opacity:1;stroke:#ff0000;stroke-width:0.70866203;stroke-linecap:round;stroke-miterlimit:10.31156349;stroke-dasharray:none;paint-order:stroke fill markers" />
    <circle
       r="5.4921298"
       cy="225.70818"
       cx="177.69701"
       id="circle10650"
       style="opacity:1;fill:none;fill-opacity:1;stroke:#ff0000;stroke-width:0.70866203;stroke-linecap:round;stroke-miterlimit:10.31156349;stroke-dasharray:none;paint-order:stroke fill markers" />
  </g>
  <g
     transform="translate(4.8530049,12.384928)"
     id="g10710">
    <g
       inkscape:label="Hershey Text"
       transform="matrix(0.24423915,0,0,0.28792398,216.68249,153.77042)"
       id="g10668">
      <path
         d="M 8,-7 7,-9 5,-11 3,-12 h -4 l -2,1 -2,2 -1,2 -1,3 v 5 l 1,3 1,2 2,2 2,1 H 3 L 5,8 7,6 8,4 V 1 M 3,1 h 5"
         style="fill:none;stroke:#000000"
         transform="translate(10)"
         id="path10662"
         inkscape:connector-curvature="0" />
      <path
         d="M -7,-12 V 9 M -7,-12 7,9 M 7,-12 V 9"
         style="fill:none;stroke:#000000"
         transform="translate(32)"
         id="path10664"
         inkscape:connector-curvature="0" />
      <path
         d="M -7,-12 V 9 m 0,-21 h 7 l 3,1 2,2 1,2 1,3 V 1 L 6,4 5,6 3,8 0,9 h -7"
         style="fill:none;stroke:#000000"
         transform="translate(54)"
         id="path10666"
         inkscape:connector-curvature="0" />
    </g>
    <g
       id="g10676"
       transform="matrix(0.24423915,0,0,0.28792398,216.66959,162.49503)"
       inkscape:label="Hershey Text">
      <path
         id="path10670"
         transform="translate(10)"
         style="fill:none;stroke:#000000"
         d="M -5,-12 H 6 l -6,8 h 3 l 2,1 1,1 1,3 V 3 L 6,6 4,8 1,9 H -2 L -5,8 -6,7 -7,5"
         inkscape:connector-curvature="0" />
      <path
         id="path10672"
         transform="translate(29)"
         style="fill:none;stroke:#000000"
         d="M -8,-12 0,9 M 8,-12 0,9"
         inkscape:connector-curvature="0" />
      <path
         id="path10674"
         transform="translate(48)"
         style="fill:none;stroke:#000000"
         d="M -5,-12 H 6 l -6,8 h 3 l 2,1 1,1 1,3 V 3 L 6,6 4,8 1,9 H -2 L -5,8 -6,7 -7,5"
         inkscape:connector-curvature="0" />
    </g>
    <g
       inkscape:label="Hershey Text"
       transform="matrix(0.24423915,0,0,0.28792398,216.68249,171.42324)"
       id="g10684">
      <path
         d="M 8,-7 7,-9 5,-11 3,-12 h -4 l -2,1 -2,2 -1,2 -1,3 v 5 l 1,3 1,2 2,2 2,1 H 3 L 5,8 7,6 8,4"
         style="fill:none;stroke:#000000"
         transform="translate(10)"
         id="path10678"
         inkscape:connector-curvature="0" />
      <path
         d="M 8,-7 7,-9 5,-11 3,-12 h -4 l -2,1 -2,2 -1,2 -1,3 v 5 l 1,3 1,2 2,2 2,1 H 3 L 5,8 7,6 8,4"
         style="fill:none;stroke:#000000"
         transform="translate(31)"
         id="path10680"
         inkscape:connector-curvature="0" />
      <path
         d="m -4,-8 2,-1 3,-3 V 9"
         style="fill:none;stroke:#000000"
         transform="translate(52)"
         id="path10682"
         inkscape:connector-curvature="0" />
    </g>
    <g
       id="g10692"
       transform="matrix(0.24423915,0,0,0.28792398,216.68249,180.14785)"
       inkscape:label="Hershey Text">
      <path
         id="path10686"
         transform="translate(10)"
         style="fill:none;stroke:#000000"
         d="M 8,-7 7,-9 5,-11 3,-12 h -4 l -2,1 -2,2 -1,2 -1,3 v 5 l 1,3 1,2 2,2 2,1 H 3 L 5,8 7,6 8,4"
         inkscape:connector-curvature="0" />
      <path
         id="path10688"
         transform="translate(31)"
         style="fill:none;stroke:#000000"
         d="M 8,-7 7,-9 5,-11 3,-12 h -4 l -2,1 -2,2 -1,2 -1,3 v 5 l 1,3 1,2 2,2 2,1 H 3 L 5,8 7,6 8,4"
         inkscape:connector-curvature="0" />
      <path
         id="path10690"
         transform="translate(52)"
         style="fill:none;stroke:#000000"
         d="m -6,-7 v -1 l 1,-2 1,-1 2,-1 h 4 l 2,1 1,1 1,2 v 2 L 5,-4 3,-1 -7,9 H 7"
         inkscape:connector-curvature="0" />
    </g>
    <g
       inkscape:label="Hershey Text"
       transform="matrix(0.24423915,0,0,0.28792398,216.68249,188.87246)"
       id="g10700">
      <path
         d="m 7,-9 -2,-2 -3,-1 h -4 l -3,1 -2,2 v 2 l 1,2 1,1 2,1 6,2 2,1 1,1 1,2 V 6 L 5,8 2,9 H -2 L -5,8 -7,6"
         style="fill:none;stroke:#000000"
         transform="translate(10)"
         id="path10694"
         inkscape:connector-curvature="0" />
      <path
         d="M 8,-7 7,-9 5,-11 3,-12 h -4 l -2,1 -2,2 -1,2 -1,3 v 5 l 1,3 1,2 2,2 2,1 H 3 L 5,8 7,6 8,4"
         style="fill:none;stroke:#000000"
         transform="translate(30)"
         id="path10696"
         inkscape:connector-curvature="0" />
      <path
         d="M -6,-12 V 9 m 0,0 H 6"
         style="fill:none;stroke:#000000"
         transform="translate(51)"
         id="path10698"
         inkscape:connector-curvature="0" />
    </g>
    <g
       id="g10708"
       transform="matrix(0.24423915,0,0,0.28792398,216.68249,197.59707)"
       inkscape:label="Hershey Text">
      <path
         id="path10702"
         transform="translate(10)"
         style="fill:none;stroke:#000000"
         d="m 7,-9 -2,-2 -3,-1 h -4 l -3,1 -2,2 v 2 l 1,2 1,1 2,1 6,2 2,1 1,1 1,2 V 6 L 5,8 2,9 H -2 L -5,8 -7,6"
         inkscape:connector-curvature="0" />
      <path
         id="path10704"
         transform="translate(31)"
         style="fill:none;stroke:#000000"
         d="M -7,-12 V 9 m 0,-21 h 7 l 3,1 2,2 1,2 1,3 V 1 L 6,4 5,6 3,8 0,9 h -7"
         inkscape:connector-curvature="0" />
      <path
         id="path10706"
         transform="translate(50)"
         style="fill:none;stroke:#000000"
         d="M 0,-12 -8,9 M 0,-12 8,9 M -5,2 H 5"
         inkscape:connector-curvature="0" />
    </g>
  </g>
  <g
     id="g10760"
     transform="translate(-30.702357,12.384928)">
    <g
       id="g10718"
       transform="matrix(0.24423915,0,0,0.28792398,216.68249,153.77042)"
       inkscape:label="Hershey Text">
      <path
         inkscape:connector-curvature="0"
         id="path10712"
         transform="translate(10)"
         style="fill:none;stroke:#000000"
         d="M 8,-7 7,-9 5,-11 3,-12 h -4 l -2,1 -2,2 -1,2 -1,3 v 5 l 1,3 1,2 2,2 2,1 H 3 L 5,8 7,6 8,4 V 1 M 3,1 h 5" />
      <path
         inkscape:connector-curvature="0"
         id="path10714"
         transform="translate(32)"
         style="fill:none;stroke:#000000"
         d="M -7,-12 V 9 M -7,-12 7,9 M 7,-12 V 9" />
      <path
         inkscape:connector-curvature="0"
         id="path10716"
         transform="translate(54)"
         style="fill:none;stroke:#000000"
         d="M -7,-12 V 9 m 0,-21 h 7 l 3,1 2,2 1,2 1,3 V 1 L 6,4 5,6 3,8 0,9 h -7" />
    </g>
    <g
       inkscape:label="Hershey Text"
       transform="matrix(0.24423915,0,0,0.28792398,216.66959,162.49503)"
       id="g10726">
      <path
         inkscape:connector-curvature="0"
         d="M -5,-12 H 6 l -6,8 h 3 l 2,1 1,1 1,3 V 3 L 6,6 4,8 1,9 H -2 L -5,8 -6,7 -7,5"
         style="fill:none;stroke:#000000"
         transform="translate(10)"
         id="path10720" />
      <path
         inkscape:connector-curvature="0"
         d="M -8,-12 0,9 M 8,-12 0,9"
         style="fill:none;stroke:#000000"
         transform="translate(29)"
         id="path10722" />
      <path
         inkscape:connector-curvature="0"
         d="M -5,-12 H 6 l -6,8 h 3 l 2,1 1,1 1,3 V 3 L 6,6 4,8 1,9 H -2 L -5,8 -6,7 -7,5"
         style="fill:none;stroke:#000000"
         transform="translate(48)"
         id="path10724" />
    </g>
    <g
       id="g10734"
       transform="matrix(0.24423915,0,0,0.28792398,216.68249,171.42324)"
       inkscape:label="Hershey Text">
      <path
         inkscape:connector-curvature="0"
         id="path10728"
         transform="translate(10)"
         style="fill:none;stroke:#000000"
         d="M 8,-7 7,-9 5,-11 3,-12 h -4 l -2,1 -2,2 -1,2 -1,3 v 5 l 1,3 1,2 2,2 2,1 H 3 L 5,8 7,6 8,4" />
      <path
         inkscape:connector-curvature="0"
         id="path10730"
         transform="translate(31)"
         style="fill:none;stroke:#000000"
         d="M 8,-7 7,-9 5,-11 3,-12 h -4 l -2,1 -2,2 -1,2 -1,3 v 5 l 1,3 1,2 2,2 2,1 H 3 L 5,8 7,6 8,4" />
      <path
         inkscape:connector-curvature="0"
         id="path10732"
         transform="translate(52)"
         style="fill:none;stroke:#000000"
         d="m -4,-8 2,-1 3,-3 V 9" />
    </g>
    <g
       inkscape:label="Hershey Text"
       transform="matrix(0.24423915,0,0,0.28792398,216.68249,180.14785)"
       id="g10742">
      <path
         inkscape:connector-curvature="0"
         d="M 8,-7 7,-9 5,-11 3,-12 h -4 l -2,1 -2,2 -1,2 -1,3 v 5 l 1,3 1,2 2,2 2,1 H 3 L 5,8 7,6 8,4"
         style="fill:none;stroke:#000000"
         transform="translate(10)"
         id="path10736" />
      <path
         inkscape:connector-curvature="0"
         d="M 8,-7 7,-9 5,-11 3,-12 h -4 l -2,1 -2,2 -1,2 -1,3 v 5 l 1,3 1,2 2,2 2,1 H 3 L 5,8 7,6 8,4"
         style="fill:none;stroke:#000000"
         transform="translate(31)"
         id="path10738" />
      <path
         inkscape:connector-curvature="0"
         d="m -6,-7 v -1 l 1,-2 1,-1 2,-1 h 4 l 2,1 1,1 1,2 v 2 L 5,-4 3,-1 -7,9 H 7"
         style="fill:none;stroke:#000000"
         transform="translate(52)"
         id="path10740" />
    </g>
    <g
       id="g10750"
       transform="matrix(0.24423915,0,0,0.28792398,216.68249,188.87246)"
       inkscape:label="Hershey Text">
      <path
         inkscape:connector-curvature="0"
         id="path10744"
         transform="translate(10)"
         style="fill:none;stroke:#000000"
         d="m 7,-9 -2,-2 -3,-1 h -4 l -3,1 -2,2 v 2 l 1,2 1,1 2,1 6,2 2,1 1,1 1,2 V 6 L 5,8 2,9 H -2 L -5,8 -7,6" />
      <path
         inkscape:connector-curvature="0"
         id="path10746"
         transform="translate(30)"
         style="fill:none;stroke:#000000"
         d="M 8,-7 7,-9 5,-11 3,-12 h -4 l -2,1 -2,2 -1,2 -1,3 v 5 l 1,3 1,2 2,2 2,1 H 3 L 5,8 7,6 8,4" />
      <path
         inkscape:connector-curvature="0"
         id="path10748"
         transform="translate(51)"
         style="fill:none;stroke:#000000"
         d="M -6,-12 V 9 m 0,0 H 6" />
    </g>
    <g
       inkscape:label="Hershey Text"
       transform="matrix(0.24423915,0,0,0.28792398,216.68249,197.59707)"
       id="g10758">
      <path
         inkscape:connector-curvature="0"
         d="m 7,-9 -2,-2 -3,-1 h -4 l -3,1 -2,2 v 2 l 1,2 1,1 2,1 6,2 2,1 1,1 1,2 V 6 L 5,8 2,9 H -2 L -5,8 -7,6"
         style="fill:none;stroke:#000000"
         transform="translate(10)"
         id="path10752" />
      <path
         inkscape:connector-curvature="0"
         d="M -7,-12 V 9 m 0,-21 h 7 l 3,1 2,2 1,2 1,3 V 1 L 6,4 5,6 3,8 0,9 h -7"
         style="fill:none;stroke:#000000"
         transform="translate(31)"
         id="path10754" />
      <path
         inkscape:connector-curvature="0"
         d="M 0,-12 -8,9 M 0,-12 8,9 M -5,2 H 5"
         style="fill:none;stroke:#000000"
         transform="translate(50)"
         id="path10756" />
    </g>
  </g>
  <g
     transform="matrix(-1,0,0,1,427.41528,19.602258)"
     id="g1154"
     style="stroke-width:0.70866203;stroke-miterlimit:5.57789087;stroke-dasharray:none">
    <path
       style="fill:none;stroke:#000000;stroke-width:0.70866203;stroke-linecap:butt;stroke-linejoin:miter;stroke-miterlimit:5.57789087;stroke-dasharray:none;stroke-opacity:1"
       d="m 209.89508,259.564 h -68.65612 l -8.14453,8.14454 v 27.06314"
       id="path1146"
       inkscape:connector-curvature="0"
       sodipodi:nodetypes="cccc" />
    <path
       style="fill:none;stroke:#000000;stroke-width:0.70866203;stroke-linecap:butt;stroke-linejoin:miter;stroke-miterlimit:5.57789087;stroke-dasharray:none;stroke-opacity:1"
       d="m 210.88121,255.0084 h -71.40419 l -11.76671,11.7667 v 27.97111"
       id="path1148"
       inkscape:connector-curvature="0"
       sodipodi:nodetypes="cccc" />
    <path
       sodipodi:nodetypes="ccscc"
       inkscape:connector-curvature="0"
       id="path1150"
       d="m 210.82688,245.44199 h -74.8896 c -0.5293,0.17953 -14.00025,13.90391 -17.70081,17.68091 -0.59107,0.60328 -0.93288,0.95278 -0.93288,0.95278 v 30.69596"
       style="fill:none;stroke:#000000;stroke-width:0.70866203;stroke-linecap:butt;stroke-linejoin:miter;stroke-miterlimit:5.57789087;stroke-dasharray:none;stroke-opacity:1" />
    <path
       sodipodi:nodetypes="cccc"
       inkscape:connector-curvature="0"
       id="path1152"
       d="m 211.28442,250.18686 h -73.59054 c -0.37534,0.28151 -15.00617,15.00617 -15.00617,15.00617 v 29.96746"
       style="fill:none;stroke:#000000;stroke-width:0.70866203;stroke-linecap:butt;stroke-linejoin:miter;stroke-miterlimit:5.57789087;stroke-dasharray:none;stroke-opacity:1" />
  </g>
  <rect
     transform="matrix(-0.70710678,-0.70710678,-0.70710678,0.70710678,0,0)"
     y="-23.98811"
     x="-408.98938"
     height="24.196331"
     width="6.6291318"
     id="rect1156"
     style="opacity:1;fill:none;fill-opacity:1;stroke:#000000;stroke-width:0.70866203;stroke-linecap:round;stroke-miterlimit:5.57789087;stroke-dasharray:none;paint-order:stroke fill markers" />
  <path
     sodipodi:nodetypes="cccc"
     style="fill:none;stroke:#000000;stroke-width:0.70866203;stroke-linecap:butt;stroke-linejoin:miter;stroke-miterlimit:5.57789087;stroke-dasharray:none;stroke-opacity:1"
     d="m 317.21658,178.82117 14.6016,14.60161 v 48.92705 l -27.76225,27.76225"
     id="path1158"
     inkscape:connector-curvature="0" />
  <path
     sodipodi:nodetypes="ccccc"
     inkscape:connector-curvature="0"
     id="path1162"
     d="M 287.82673,143.59416 271.7661,127.53353 V 91.312572 L 302.30242,60.776245 V 35.433102"
     style="fill:none;stroke:#000000;stroke-width:0.70866203;stroke-linecap:butt;stroke-linejoin:miter;stroke-miterlimit:5.57789087;stroke-dasharray:none;stroke-opacity:1" />
</svg>
