<?xml version="1.0" encoding="UTF-8" standalone="no"?>
<svg
   xmlns:dc="http://purl.org/dc/elements/1.1/"
   xmlns:cc="http://creativecommons.org/ns#"
   xmlns:rdf="http://www.w3.org/1999/02/22-rdf-syntax-ns#"
   xmlns:svg="http://www.w3.org/2000/svg"
   xmlns="http://www.w3.org/2000/svg"
   xmlns:sodipodi="http://sodipodi.sourceforge.net/DTD/sodipodi-0.dtd"
   xmlns:inkscape="http://www.inkscape.org/namespaces/inkscape"
   version="1.1"
   width="255.40045mm"
   height="35.402382mm"
   viewBox="0 0 904.963 125.44162"
   id="svg908"
   sodipodi:docname="caseplans_2mm.svg"
   inkscape:version="0.92.4 (unknown)">
  <metadata
     id="metadata914">
    <rdf:RDF>
      <cc:Work
         rdf:about="">
        <dc:format>image/svg+xml</dc:format>
        <dc:type
           rdf:resource="http://purl.org/dc/dcmitype/StillImage" />
        <dc:title />
      </cc:Work>
    </rdf:RDF>
  </metadata>
  <defs
     id="defs912" />
  <sodipodi:namedview
     pagecolor="#ffffff"
     bordercolor="#666666"
     borderopacity="1"
     objecttolerance="10"
     gridtolerance="10"
     guidetolerance="10"
     inkscape:pageopacity="0"
     inkscape:pageshadow="2"
     inkscape:window-width="1920"
     inkscape:window-height="1038"
     id="namedview910"
     showgrid="false"
     inkscape:document-units="mm"
     inkscape:zoom="8.3214084"
     inkscape:cx="692.85448"
     inkscape:cy="47.673949"
     inkscape:window-x="0"
     inkscape:window-y="42"
     inkscape:window-maximized="1"
     inkscape:current-layer="g1553"
     fit-margin-top="10"
     fit-margin-left="10"
     fit-margin-right="10"
     fit-margin-bottom="10"
     inkscape:measure-start="438.719,682.375"
     inkscape:measure-end="429.438,682.375" />
  <!-- Front-->
  <!-- Back-->
  <!-- Left-->
  <g
     transform="matrix(0.99998439,0,0,1.0370077,368.52803,41.56439)"
     id="g894"
     style="stroke-width:0.69590759;stroke-miterlimit:10.31156349;stroke-dasharray:none" />
  <!-- Right-->
  <!-- Top-->
  <!-- Bottom-->
  <g
     id="g2295"
     transform="translate(5.5931337,13.839244)">
    <path
       style="opacity:1;fill:none;fill-opacity:1;stroke:#ff0000;stroke-width:0.75603288;stroke-linecap:round;stroke-miterlimit:10.31156349;stroke-dasharray:none;paint-order:stroke fill markers"
       d="M 215.13672,22.286984 V 33.624875 69.53125 80.869141 h 7.55859 V 69.53125 h 143.62406 v 11.337891 h 7.55905 V 69.53125 33.624875 22.286984 h -7.55905 V 33.624875 H 222.69727 V 22.286984 Z"
       transform="scale(0.9375008)"
       id="path2290"
       inkscape:connector-curvature="0"
       sodipodi:nodetypes="ccccccccccccccccc" />
    <path
       id="rect1482"
       d="m 266.87794,46.396014 h 18.4462 c 3.93047,0 7.0947,3.010884 7.0947,6.750863 0,3.739976 -3.16423,6.750861 -7.0947,6.750861 h -18.4462 c -3.93046,0 -7.0947,-3.010885 -7.0947,-6.750861 0,-3.739979 3.16424,-6.750863 7.0947,-6.750863 z"
       style="opacity:1;fill:none;fill-opacity:1;stroke:#ff0000;stroke-width:0.67151582;stroke-linecap:round;stroke-miterlimit:10.31156349;stroke-dasharray:none;paint-order:stroke fill markers"
       inkscape:connector-curvature="0" />
  </g>
  <path
     style="opacity:1;fill:none;fill-opacity:1;stroke:#ff0000;stroke-width:0.70866203;stroke-linecap:round;stroke-miterlimit:10.31156349;stroke-dasharray:none;paint-order:stroke fill markers"
     d="m 364.60779,34.733251 v 10.629281 33.662374 10.629282 h 7.08619 V 79.024906 h 226.77356 v 10.629282 h 14.17238 V 79.024906 45.362532 34.733251 H 598.46754 V 45.362532 H 371.69581 V 34.733251 Z"
     id="rect1527"
     inkscape:connector-curvature="0"
     sodipodi:nodetypes="ccccccccccccccccc" />
  <g
     id="g1553"
     transform="matrix(0,-1.0617367,1.0000812,0,530.1181,506.54177)"
     style="stroke-width:0.68772233;stroke-miterlimit:10.31156349;stroke-dasharray:none">
    <path
       style="opacity:1;fill:none;fill-opacity:1;stroke:#ff0000;stroke-width:0.75590545;stroke-linecap:round;stroke-miterlimit:10.31156349;stroke-dasharray:none;paint-order:stroke fill markers"
       d="m 654.99219,22.309664 v 11.33789 35.883696 11.337891 h 15.11719 V 69.53125 h 74.45754 V 57.445863 h 60.4715 V 69.53125 H 912.0012 v 11.337891 h 7.55859 V 69.53125 33.647554 22.309664 h -7.56054 v 11.33789 H 670.10938 v -11.33789 z"
       transform="matrix(0,0.93742468,-0.88298803,0,464.05334,-522.9881)"
       id="rect1522"
       inkscape:connector-curvature="0"
       sodipodi:nodetypes="ccccccccccccccccccccc" />
    <rect
       style="opacity:1;fill:none;fill-opacity:1;stroke:#ff0000;stroke-width:0.68772233;stroke-linecap:round;stroke-miterlimit:10.31156349;stroke-dasharray:none;paint-order:stroke fill markers"
       id="rect828"
       width="10.679289"
       height="31.889791"
       x="408.66727"
       y="106.27227"
       rx="4.9606342"
       ry="4.9606342" />
  </g>
  <path
     style="opacity:1;fill:none;fill-opacity:1;stroke:#ff0000;stroke-width:0.70878136;stroke-linecap:round;stroke-miterlimit:10.31156349;stroke-dasharray:none;paint-order:stroke fill markers"
     d="m 35.787492,34.734501 v 10.62638 33.663962 10.629345 l 14.17238,-6.5e-5 V 79.024843 H 184.60826 v 10.62928 h 14.17232 V 79.024843 45.360881 34.734501 h -14.17232 v 10.62638 h -0.002 -38.27076 -7.79328 v 24.3041 H 96.022517 v -24.3041 h -7.27172 -38.789095 v -10.62638 z"
     id="rect893-5"
     inkscape:connector-curvature="0"
     sodipodi:nodetypes="cccccccccccccccccccccccc" />
</svg>
