(module USB_C_Plug_Molex_105444_HandSoldering (layer F.Cu) (tedit 5B76967E)
  (descr "Universal Serial Bus (USB) Shielded I/O Plug, Type C, Right Angle, Surface Mount, http://www.molex.com/pdm_docs/sd/1054440001_sd.pdf")
  (tags "USB Type-C Plug Edge Mount")
  (attr smd)
  (fp_text reference REF** (at 0 2.04) (layer F.SilkS)
    (effects (font (size 1 1) (thickness 0.15)))
  )
  (fp_text value USB_C_Plug_Molex_105444 (at 0 -1.96) (layer F.Fab)
    (effects (font (size 1 1) (thickness 0.15)))
  )
  (fp_text user %R (at 0 2.04) (layer F.Fab)
    (effects (font (size 1 1) (thickness 0.1)))
  )
  (fp_line (start -4.3 1.96) (end -4.3 -1.46) (layer F.CrtYd) (width 0.05))
  (fp_text user "PCB Edge" (at 0 -0.96) (layer Dwgs.User)
    (effects (font (size 0.5 0.5) (thickness 0.08)))
  )
  (fp_line (start 3.35 0) (end 4.3 0) (layer F.Fab) (width 0.1))
  (fp_line (start 3.05 -0.66) (end 3.05 -0.3) (layer F.Fab) (width 0.1))
  (fp_arc (start 2.75 -0.66) (end 2.75 -0.96) (angle 90) (layer F.Fab) (width 0.1))
  (fp_line (start -2.75 -0.96) (end 2.75 -0.96) (layer F.Fab) (width 0.1))
  (fp_arc (start -2.75 -0.66) (end -3.05 -0.66) (angle 90) (layer F.Fab) (width 0.1))
  (fp_arc (start 3.35 -0.3) (end 3.35 0) (angle 90) (layer F.Fab) (width 0.1))
  (fp_line (start -3.05 -0.66) (end -3.05 -0.3) (layer F.Fab) (width 0.1))
  (fp_arc (start -3.35 -0.3) (end -3.05 -0.3) (angle 90) (layer F.Fab) (width 0.1))
  (fp_line (start -3.35 0) (end -4.3 0) (layer F.Fab) (width 0.1))
  (fp_line (start 4.3 1.96) (end 4.3 -1.46) (layer F.CrtYd) (width 0.05))
  (fp_line (start 4.3 -1.46) (end -4.3 -1.46) (layer F.CrtYd) (width 0.05))
  (fp_line (start 4.3 1.96) (end -4.3 1.96) (layer F.CrtYd) (width 0.05))
  (pad A1 smd rect (at -2.75 0.34) (size 0.38 1.6) (layers F.Cu F.Paste F.Mask))
  (pad A2 smd rect (at -2.25 0.34) (size 0.38 1.6) (layers F.Cu F.Paste F.Mask))
  (pad A3 smd rect (at -1.75 0.34) (size 0.38 1.6) (layers F.Cu F.Paste F.Mask))
  (pad A4 smd rect (at -1.25 0.34) (size 0.38 1.6) (layers F.Cu F.Paste F.Mask))
  (pad A5 smd rect (at -0.75 0.34) (size 0.38 1.6) (layers F.Cu F.Paste F.Mask))
  (pad A6 smd rect (at -0.25 0.34) (size 0.38 1.6) (layers F.Cu F.Paste F.Mask))
  (pad A7 smd rect (at 0.25 0.34) (size 0.38 1.6) (layers F.Cu F.Paste F.Mask))
  (pad A8 smd rect (at 0.75 0.34) (size 0.38 1.6) (layers F.Cu F.Paste F.Mask))
  (pad A9 smd rect (at 1.25 0.34) (size 0.38 1.6) (layers F.Cu F.Paste F.Mask))
  (pad A10 smd rect (at 1.75 0.34) (size 0.38 1.6) (layers F.Cu F.Paste F.Mask))
  (pad A11 smd rect (at 2.25 0.34) (size 0.38 1.6) (layers F.Cu F.Paste F.Mask))
  (pad A12 smd rect (at 2.75 0.34) (size 0.38 1.6) (layers F.Cu F.Paste F.Mask))
  (pad S1 smd rect (at -3.42 0.88) (size 0.7 1.15) (layers F.Cu F.Paste F.Mask))
  (pad S1 smd rect (at 3.42 0.88) (size 0.7 1.15) (layers B.Cu B.Paste B.Mask))
  (pad B1 smd rect (at 2.75 0.34) (size 0.38 1.6) (layers B.Cu B.Paste B.Mask))
  (pad B2 smd rect (at 2.25 0.34) (size 0.38 1.6) (layers B.Cu B.Paste B.Mask))
  (pad B3 smd rect (at 1.75 0.34) (size 0.38 1.6) (layers B.Cu B.Paste B.Mask))
  (pad B4 smd rect (at 1.25 0.34) (size 0.38 1.6) (layers B.Cu B.Paste B.Mask))
  (pad B5 smd rect (at 0.75 0.34) (size 0.38 1.6) (layers B.Cu B.Paste B.Mask))
  (pad B8 smd rect (at -0.75 0.34) (size 0.38 1.6) (layers B.Cu B.Paste B.Mask))
  (pad B9 smd rect (at -1.25 0.34) (size 0.38 1.6) (layers B.Cu B.Paste B.Mask))
  (pad B10 smd rect (at -1.75 0.34) (size 0.38 1.6) (layers B.Cu B.Paste B.Mask))
  (pad B11 smd rect (at -2.25 0.34) (size 0.38 1.6) (layers B.Cu B.Paste B.Mask))
  (pad B12 smd rect (at -2.75 0.34) (size 0.38 1.6) (layers B.Cu B.Paste B.Mask))
  (model ${KISYS3DMOD}/Connectors_USB.3dshapes/USB_C_Plug_Molex_105444.wrl
    (at (xyz 0 0 0))
    (scale (xyz 1 1 1))
    (rotate (xyz 0 0 0))
  )
)
